SOCS0100_Report_1
…
descriptive_stats <- filtered_data_no_na %>%
  summarise(across(where(is.numeric), list(
    mean = ~ mean(., na.rm = TRUE),  
    median = ~ median(., na.rm = TRUE),  
    sd = ~ sd(., na.rm = TRUE),  
    min = ~ min(., na.rm = TRUE),  
    max = ~ max(., na.rm = TRUE)  
  )))
print("Descriptive statistics for numeric columns:")

[1] "Descriptive statistics for numeric columns:"

print(descriptive_stats)

# A tibble: 139 × 26
   Entity Year_mean Year_median Year_sd Year_min Year_max Number.of.people.wit…¹
   <chr>      <dbl>       <dbl>   <dbl>    <int>    <int>                  <dbl>
 1 Afgha…     2012        2012     4.47     2005     2019              20976776.
 2 Alban…     2010.       2010.    5.92     2000     2019               2947902.
 3 Alger…     2014.       2014.    3.61     2008     2019              38357564.
 4 Angola     2010        2010     5.63     2001     2019               8608462.
 5 Antig…     2009.       2009     5.72     2000     2019                 85423.
 6 Argen…     2010.       2010.    5.92     2000     2019              40071238.
 7 Armen…     2010.       2010.    5.92     2000     2019               2934864.
 8 Azerb…     2009        2009     6.20     1999     2019               8901823.
 9 Bangl…     2005        2005     8.51     1991     2019              67375312.
10 Belize     2005        2005     8.51     1991     2019                242526.
# ℹ 129 more rows
# ℹ abbreviated name: ¹​Number.of.people.with.access.to.electricity_mean
# ℹ 19 more variables:
#   Number.of.people.with.access.to.electricity_median <dbl>,
#   Number.of.people.with.access.to.electricity_sd <dbl>,
#   Number.of.people.with.access.to.electricity_min <dbl>,
#   Number.of.people.with.access.to.electricity_max <dbl>, …
…
# Summarize electricity access rate by year
yearly_summary <- selected_data %>%
  group_by(Year) %>%
  summarise(mean_electricity_access_rate = mean(Electricity_Access_Rate, na.rm = TRUE),  # Calculate mean
            mean_clean_fuels_access_rate = mean(Clean_Fuels_Access_Rate, na.rm = TRUE))  # Calculate mean
print(yearly_summary)

# A tibble: 30 × 3
    Year mean_electricity_access_rate mean_clean_fuels_access_rate
   <int>                        <dbl>                        <dbl>
 1  1990                        0.754                        0.711
 2  1991                        0.646                        0.616
 3  1992                        0.589                        0.570
 4  1993                        0.551                        0.507
 5  1994                        0.571                        0.522
 6  1995                        0.578                        0.511
 7  1996                        0.572                        0.488
 8  1997                        0.565                        0.471
 9  1998                        0.574                        0.470
10  1999                        0.587                        0.471
# ℹ 20 more rows
…
